{
  "connection": "default",
  "collectionName": "customeroffers",
  "info": {
    "name": "customeroffer",
    "description": ""
  },
  "options": {
    "increments": true,
    "timestamps": true,
    "comment": ""
  },
  "attributes": {
    "customer_id": {
      "type": "string"
    },
    "free_delivery_flag": {
      "type": "boolean"
    },
    "free_delivery_times": {
      "type": "integer"
    },
    "consumed_free_delivery": {
      "type": "integer"
    },
    "free_delivery_start_time": {
      "type": "date"
    },
    "free_delivery_end_time": {
      "type": "date"
    },
    "discount_flag": {
      "type": "boolean"
    },
    "discount_times": {
      "type": "integer"
    },
    "discount_amount": {
      "type": "decimal"
    },
    "consumed_discount": {
      "type": "integer"
    },
    "discount_start_time": {
      "type": "date"
    },
    "discount_end_time": {
      "type": "date"
    }
  }
}