{
  "connection": "default",
  "collectionName": "providerdevicetokens",
  "info": {
    "name": "providerdevicetoken",
    "description": ""
  },
  "options": {
    "increments": true,
    "timestamps": true,
    "comment": ""
  },
  "attributes": {
    "provider_id": {
      "type": "string"
    },
    "token": {
      "type": "string"
    },
    "language": {
      "type": "string"
    }
  }
}