{
  "routes": [
    {
      "method": "GET",
      "path": "/parentproviders",
      "handler": "Parentprovider.find",
      "config": {
        "policies": []
      }
    },
    {
      "method": "GET",
      "path": "/parentproviders/count",
      "handler": "Parentprovider.count",
      "config": {
        "policies": []
      }
    },
    {
      "method": "GET",
      "path": "/parentproviders/:id",
      "handler": "Parentprovider.findOne",
      "config": {
        "policies": []
      }
    },
    {
      "method": "POST",
      "path": "/parentproviders",
      "handler": "Parentprovider.create",
      "config": {
        "policies": []
      }
    },
    {
      "method": "PUT",
      "path": "/parentproviders/:id",
      "handler": "Parentprovider.update",
      "config": {
        "policies": []
      }
    },
    {
      "method": "DELETE",
      "path": "/parentproviders/:id",
      "handler": "Parentprovider.destroy",
      "config": {
        "policies": []
      }
    }
  ]
}