{
  "routes": [{
      "method": "GET",
      "path": "/exclusivedevices",
      "handler": "Exclusivedevice.find",
      "config": {
        "policies": []
      }
    },
    {
      "method": "GET",
      "path": "/exclusivedevices/count",
      "handler": "Exclusivedevice.count",
      "config": {
        "policies": []
      }
    },
    {
      "method": "GET",
      "path": "/exclusivedevices/:id",
      "handler": "Exclusivedevice.findOne",
      "config": {
        "policies": []
      }
    },
    {
      "method": "POST",
      "path": "/exclusivedevices",
      "handler": "Exclusivedevice.create",
      "config": {
        "policies": []
      }
    },
    {
      "method": "POST",
      "path": "/exclusivedevices/register",
      "handler": "Exclusivedevice.registerExclusiveDevice",
      "config": {
        "policies": []
      }
    },
    {
      "method": "PUT",
      "path": "/exclusivedevices/:id",
      "handler": "Exclusivedevice.update",
      "config": {
        "policies": []
      }
    },
    {
      "method": "DELETE",
      "path": "/exclusivedevices/:id",
      "handler": "Exclusivedevice.destroy",
      "config": {
        "policies": []
      }
    }
  ]
}
