{
  "connection": "default",
  "collectionName": "providermessages",
  "info": {
    "name": "providermessage",
    "description": ""
  },
  "options": {
    "increments": true,
    "timestamps": true,
    "comment": ""
  },
  "attributes": {
    "subject": {
      "default": "",
      "type": "string"
    },
    "description": {
      "default": "",
      "type": "text"
    },
    "provider": {
      "model": "provider",
      "via": "providermessages"
    }
  }
}