{
  "connection": "default",
  "collectionName": "cities",
  "info": {
    "name": "city",
    "description": ""
  },
  "options": {
    "increments": true,
    "timestamps": true,
    "comment": ""
  },
  "attributes": {
    "name": {
      "default": "",
      "type": "string"
    },
    "country": {
      "model": "country",
      "via": "cities"
    },
    "regions": {
      "collection": "region",
      "via": "city"
    }
  }
}