{
  "myCustomConfiguration": "This configuration is accessible through strapi.config.environments.development.myCustomConfiguration",
  "TWILIO_ACTIVATION_CODE_SMS_API_URL": "https://AC56f2405c78c50fc35377f6aa960adf05:8d0e7302275552b7db5608633e767b79@studio.twilio.com/v1/Flows/FW586471bff53fe9fa25765dd33cefbc55/Executions",
  "TWILIO_SMS_SENDER": "+12018624557",
  "NAME": "development",
  "IVR_ORDERTYPE": ["", "Grocery", "Veg_and_Fruits", "Pharmacy", "Home_Cleaning", "Car_Cleaning", "Laundry", "Uber"],
  "IVR_ORDERTYPE_SERVICETYPE": {
    "": "",
    "Grocery": "Grocery",
    "Veg_and_Fruits": "Veg & Fruits",
    "Pharmacy": "Pharmacy",
    "Home_Cleaning": "Home Cleaning",
    "Car_Cleaning": "Car Cleaning",
    "Laundry": "Laundry",
    "Uber": "uber"
  },
  "ORDER_STATUS_REJECTED": "Rejected",
  "ORDER_STATUS_DELIVERED": "Delivered",
  "ORDER_STATUS_CANCELLED": "Cancelled",
  "ORDER_STATUS_OUTSTANDING": "Outstanding",
  "ORDER_STATUS_NEW": "New",
  "ORDER_CHANNEL_BUTTON": "button",
  "ORDERHISTORY_TYPE_REJECTION": "rejection",
  "ORDERHISTORY_TYPE_CANCELLATION": "cancellation",
  "ORDERHISTORY_TYPE_CREATION": "creation",
  "ORDERHISTORY_TYPE_STATUSCHANGE": "status_change",
  "POSTCALL_CHANNEL_HARD": "Hard",
  "POSTCALL_CHANNEL_SOFT": "Soft",
  "PROVIDER_FAILEDOP_CODE": 227,
  "DEVICE_DEVICEINTEGRATION_QRNOTEXIST_CODE": 227,
  "DEVICE_DEVICEINTEGRATION_DEVIDEXIST_CODE": 228,
  "DEVICE_DEVICEINTEGRATION_DEVICEALREADYREG_CODE": 229,
  "SERVER_BASE_URL": "http://dev.4aldn.com:1338",
  "LINEBREAK": "------------------------------------------------------------------",
  "DISPATCH_NOPROVIDER": "No provider available in this cluster at this time",
  "SMSMISR_API_URL": "https://smsmisr.com/api/webapi/?",
  "SMSMISR_USERNAME": "AAXpARwL",
  "SMSMISR_PASSWORD": "llFQzTY0Ur",
  "SMSMISR_LANGUAGE_EN": 1,
  "SMSMISR_SENDER_ALADDIN": "aladdin",
  "NOTIFICATION_SCREENNAME": {
    "Preparing": "OngoingOrder",
    "Delivered": "OrderDetailsCancel",
    "Dispatched": "OngoingOrder",
    "Rejected": "OrderDetailsCancel"
  },
  "NOTIFICATION_TITLE": {
    "EN": {
      "status_update": "Order Status Update: ",
      "order_submission": "New Order: "
    },
    "AR": {
      "status_update": "تحديث لحالة الطلب: ",
      "order_submission": "طلب جديد: "
    }
  },
  "NOTIFICATION_BODY": {
    "EN": {
      "status_update": {
        "Preparing": "Your order is now being prepared",
        "Delivered": "Your order has been delivered",
        "Rejected": "Your order has been rejected",
        "Dispatched": "Your order has been dispatched",
        "Outstanding": "No available vendors right now, awaiting handling",
        "New": "A new order has been submitted to you"
      }
    },
    "AR": {
      "status_update": {
        "Preparing": "طلبك قيد التحضير",
        "Delivered": "تم توصيل طلبك",
        "Rejected": "طلبك قوبل بالرفض",
        "Dispatched": "الطلب فى طريقه إليك",
        "Outstanding": "لا يوجد أى موزع متاح الآن. طلبك قيد الانتظار",
        "New": "هناك طلب جديد قد أرسل إليك"
      }
    }
  },
  "PROVIDER_NOTIFICATION_DATA_SOUND": "loud alarm",
  "PROVIDER_NOTIFICATION_ANDROID_SOUND": "notification"
}
